info face="The First FontStruction" size=12 bold=0 italic=0 charset="" unicode=1 stretchH=100 smooth=1 aa=1 padding=0,0,0,0 spacing=1,1 outline=0
common lineHeight=12 base=9 scaleW=256 scaleH=256 pages=1 packed=0 alphaChnl=0 redChnl=4 greenChnl=4 blueChnl=4
page id=0 file="the_first_fontstruction12_0.png"
chars count=144
char id=32   x=240   y=29    width=3     height=1     xoffset=-1    yoffset=11    xadvance=3     page=0  chnl=15
char id=33   x=44    y=28    width=3     height=7     xoffset=-1    yoffset=2     xadvance=2     page=0  chnl=15
char id=34   x=227   y=26    width=4     height=2     xoffset=-1    yoffset=1     xadvance=3     page=0  chnl=15
char id=35   x=238   y=10    width=8     height=7     xoffset=-1    yoffset=2     xadvance=7     page=0  chnl=15
char id=36   x=48    y=0     width=7     height=9     xoffset=-1    yoffset=1     xadvance=6     page=0  chnl=15
char id=37   x=208   y=10    width=9     height=7     xoffset=-1    yoffset=2     xadvance=8     page=0  chnl=15
char id=38   x=247   y=10    width=8     height=7     xoffset=-1    yoffset=2     xadvance=7     page=0  chnl=15
char id=39   x=242   y=26    width=3     height=2     xoffset=-1    yoffset=1     xadvance=2     page=0  chnl=15
char id=40   x=81    y=10    width=4     height=9     xoffset=-1    yoffset=1     xadvance=3     page=0  chnl=15
char id=41   x=76    y=10    width=4     height=9     xoffset=-1    yoffset=1     xadvance=3     page=0  chnl=15
char id=42   x=182   y=27    width=7     height=5     xoffset=-1    yoffset=0     xadvance=6     page=0  chnl=15
char id=43   x=195   y=27    width=6     height=4     xoffset=-1    yoffset=4     xadvance=5     page=0  chnl=15
char id=44   x=232   y=26    width=4     height=2     xoffset=-1    yoffset=8     xadvance=3     page=0  chnl=15
char id=45   x=229   y=29    width=6     height=1     xoffset=-1    yoffset=5     xadvance=5     page=0  chnl=15
char id=46   x=236   y=29    width=3     height=1     xoffset=-1    yoffset=8     xadvance=2     page=0  chnl=15
char id=47   x=28    y=28    width=5     height=7     xoffset=-1    yoffset=2     xadvance=4     page=0  chnl=15
char id=48   x=21    y=29    width=6     height=7     xoffset=-1    yoffset=2     xadvance=5     page=0  chnl=15
char id=49   x=39    y=28    width=4     height=7     xoffset=-1    yoffset=2     xadvance=3     page=0  chnl=15
char id=50   x=201   y=19    width=6     height=7     xoffset=-1    yoffset=2     xadvance=5     page=0  chnl=15
char id=51   x=14    y=29    width=6     height=7     xoffset=-1    yoffset=2     xadvance=5     page=0  chnl=15
char id=52   x=7     y=29    width=6     height=7     xoffset=-1    yoffset=2     xadvance=5     page=0  chnl=15
char id=53   x=0     y=29    width=6     height=7     xoffset=-1    yoffset=2     xadvance=5     page=0  chnl=15
char id=54   x=243   y=18    width=6     height=7     xoffset=-1    yoffset=2     xadvance=5     page=0  chnl=15
char id=55   x=236   y=18    width=6     height=7     xoffset=-1    yoffset=2     xadvance=5     page=0  chnl=15
char id=56   x=229   y=18    width=6     height=7     xoffset=-1    yoffset=2     xadvance=5     page=0  chnl=15
char id=57   x=222   y=18    width=6     height=7     xoffset=-1    yoffset=2     xadvance=5     page=0  chnl=15
char id=58   x=202   y=27    width=3     height=4     xoffset=-1    yoffset=5     xadvance=2     page=0  chnl=15
char id=59   x=190   y=27    width=4     height=5     xoffset=-1    yoffset=5     xadvance=3     page=0  chnl=15
char id=60   x=170   y=27    width=5     height=6     xoffset=-1    yoffset=3     xadvance=4     page=0  chnl=15
char id=61   x=220   y=26    width=6     height=2     xoffset=-1    yoffset=5     xadvance=5     page=0  chnl=15
char id=62   x=176   y=27    width=5     height=6     xoffset=-1    yoffset=3     xadvance=4     page=0  chnl=15
char id=63   x=50    y=20    width=7     height=7     xoffset=-1    yoffset=2     xadvance=6     page=0  chnl=15
char id=64   x=218   y=10    width=9     height=7     xoffset=-1    yoffset=2     xadvance=8     page=0  chnl=15
char id=65   x=58    y=20    width=7     height=7     xoffset=-1    yoffset=2     xadvance=6     page=0  chnl=15
char id=66   x=66    y=20    width=7     height=7     xoffset=-1    yoffset=2     xadvance=6     page=0  chnl=15
char id=67   x=74    y=20    width=7     height=7     xoffset=-1    yoffset=2     xadvance=6     page=0  chnl=15
char id=68   x=42    y=20    width=7     height=7     xoffset=-1    yoffset=2     xadvance=6     page=0  chnl=15
char id=69   x=82    y=20    width=7     height=7     xoffset=-1    yoffset=2     xadvance=6     page=0  chnl=15
char id=70   x=90    y=20    width=7     height=7     xoffset=-1    yoffset=2     xadvance=6     page=0  chnl=15
char id=71   x=98    y=19    width=7     height=7     xoffset=-1    yoffset=2     xadvance=6     page=0  chnl=15
char id=72   x=106   y=19    width=7     height=7     xoffset=-1    yoffset=2     xadvance=6     page=0  chnl=15
char id=73   x=34    y=28    width=4     height=7     xoffset=-1    yoffset=2     xadvance=3     page=0  chnl=15
char id=74   x=114   y=19    width=7     height=7     xoffset=-1    yoffset=2     xadvance=6     page=0  chnl=15
char id=75   x=122   y=19    width=7     height=7     xoffset=-1    yoffset=2     xadvance=6     page=0  chnl=15
char id=76   x=130   y=19    width=7     height=7     xoffset=-1    yoffset=2     xadvance=6     page=0  chnl=15
char id=77   x=9     y=21    width=8     height=7     xoffset=-1    yoffset=2     xadvance=7     page=0  chnl=15
char id=78   x=138   y=19    width=7     height=7     xoffset=-1    yoffset=2     xadvance=6     page=0  chnl=15
char id=79   x=146   y=19    width=7     height=7     xoffset=-1    yoffset=2     xadvance=6     page=0  chnl=15
char id=80   x=154   y=19    width=7     height=7     xoffset=-1    yoffset=2     xadvance=6     page=0  chnl=15
char id=81   x=162   y=19    width=7     height=7     xoffset=-1    yoffset=2     xadvance=6     page=0  chnl=15
char id=82   x=170   y=19    width=7     height=7     xoffset=-1    yoffset=2     xadvance=6     page=0  chnl=15
char id=83   x=178   y=19    width=7     height=7     xoffset=-1    yoffset=2     xadvance=6     page=0  chnl=15
char id=84   x=194   y=19    width=6     height=7     xoffset=-1    yoffset=2     xadvance=5     page=0  chnl=15
char id=85   x=186   y=19    width=7     height=7     xoffset=-1    yoffset=2     xadvance=6     page=0  chnl=15
char id=86   x=26    y=20    width=7     height=7     xoffset=-1    yoffset=2     xadvance=6     page=0  chnl=15
char id=87   x=0     y=21    width=8     height=7     xoffset=-1    yoffset=2     xadvance=7     page=0  chnl=15
char id=88   x=215   y=18    width=6     height=7     xoffset=-1    yoffset=2     xadvance=5     page=0  chnl=15
char id=89   x=208   y=18    width=6     height=7     xoffset=-1    yoffset=2     xadvance=5     page=0  chnl=15
char id=90   x=18    y=21    width=7     height=7     xoffset=-1    yoffset=2     xadvance=6     page=0  chnl=15
char id=91   x=86    y=10    width=4     height=9     xoffset=-1    yoffset=1     xadvance=3     page=0  chnl=15
char id=92   x=250   y=18    width=5     height=7     xoffset=-1    yoffset=2     xadvance=4     page=0  chnl=15
char id=93   x=91    y=10    width=4     height=9     xoffset=-1    yoffset=1     xadvance=3     page=0  chnl=15
char id=94   x=206   y=27    width=6     height=3     xoffset=-1    yoffset=0     xadvance=5     page=0  chnl=15
char id=95   x=246   y=26    width=7     height=1     xoffset=-1    yoffset=10    xadvance=6     page=0  chnl=15
char id=96   x=237   y=26    width=4     height=2     xoffset=-1    yoffset=0     xadvance=3     page=0  chnl=15
char id=97   x=92    y=28    width=7     height=6     xoffset=-1    yoffset=3     xadvance=6     page=0  chnl=15
char id=98   x=119   y=10    width=6     height=8     xoffset=-1    yoffset=1     xadvance=5     page=0  chnl=15
char id=99   x=121   y=27    width=6     height=6     xoffset=-1    yoffset=3     xadvance=5     page=0  chnl=15
char id=100  x=133   y=10    width=6     height=8     xoffset=-1    yoffset=1     xadvance=5     page=0  chnl=15
char id=101  x=114   y=27    width=6     height=6     xoffset=-1    yoffset=3     xadvance=5     page=0  chnl=15
char id=102  x=0     y=0     width=7     height=10    xoffset=-2    yoffset=1     xadvance=5     page=0  chnl=15
char id=103  x=147   y=10    width=6     height=8     xoffset=-1    yoffset=3     xadvance=5     page=0  chnl=15
char id=104  x=140   y=10    width=6     height=8     xoffset=-1    yoffset=1     xadvance=5     page=0  chnl=15
char id=105  x=48    y=28    width=3     height=7     xoffset=-1    yoffset=2     xadvance=2     page=0  chnl=15
char id=106  x=70    y=10    width=5     height=9     xoffset=-1    yoffset=2     xadvance=4     page=0  chnl=15
char id=107  x=126   y=10    width=6     height=8     xoffset=-1    yoffset=1     xadvance=5     page=0  chnl=15
char id=108  x=203   y=10    width=4     height=8     xoffset=-1    yoffset=1     xadvance=3     page=0  chnl=15
char id=109  x=63    y=28    width=10    height=6     xoffset=-1    yoffset=3     xadvance=9     page=0  chnl=15
char id=110  x=128   y=27    width=6     height=6     xoffset=-1    yoffset=3     xadvance=5     page=0  chnl=15
char id=111  x=135   y=27    width=6     height=6     xoffset=-1    yoffset=3     xadvance=5     page=0  chnl=15
char id=112  x=189   y=10    width=6     height=8     xoffset=-1    yoffset=3     xadvance=5     page=0  chnl=15
char id=113  x=104   y=10    width=7     height=8     xoffset=-1    yoffset=3     xadvance=6     page=0  chnl=15
char id=114  x=142   y=27    width=6     height=6     xoffset=-1    yoffset=3     xadvance=5     page=0  chnl=15
char id=115  x=149   y=27    width=6     height=6     xoffset=-1    yoffset=3     xadvance=5     page=0  chnl=15
char id=116  x=168   y=10    width=6     height=8     xoffset=-1    yoffset=1     xadvance=5     page=0  chnl=15
char id=117  x=156   y=27    width=6     height=6     xoffset=-1    yoffset=3     xadvance=5     page=0  chnl=15
char id=118  x=163   y=27    width=6     height=6     xoffset=-1    yoffset=3     xadvance=5     page=0  chnl=15
char id=119  x=52    y=28    width=10    height=6     xoffset=-1    yoffset=3     xadvance=9     page=0  chnl=15
char id=120  x=100   y=27    width=6     height=6     xoffset=-1    yoffset=3     xadvance=5     page=0  chnl=15
char id=121  x=154   y=10    width=6     height=8     xoffset=-1    yoffset=3     xadvance=5     page=0  chnl=15
char id=122  x=107   y=27    width=6     height=6     xoffset=-1    yoffset=3     xadvance=5     page=0  chnl=15
char id=123  x=28    y=10    width=6     height=9     xoffset=-1    yoffset=1     xadvance=5     page=0  chnl=15
char id=124  x=252   y=0     width=3     height=8     xoffset=-1    yoffset=1     xadvance=2     page=0  chnl=15
char id=125  x=7     y=11    width=6     height=9     xoffset=-1    yoffset=1     xadvance=5     page=0  chnl=15
char id=126  x=213   y=26    width=6     height=2     xoffset=-1    yoffset=0     xadvance=5     page=0  chnl=15
char id=128  x=213   y=29    width=15    height=1     xoffset=-5    yoffset=11    xadvance=6     page=0  chnl=15
char id=162  x=175   y=10    width=6     height=8     xoffset=-1    yoffset=2     xadvance=5     page=0  chnl=15
char id=163  x=34    y=20    width=7     height=7     xoffset=-1    yoffset=2     xadvance=6     page=0  chnl=15
char id=169  x=74    y=28    width=8     height=6     xoffset=-1    yoffset=3     xadvance=7     page=0  chnl=15
char id=174  x=83    y=28    width=8     height=6     xoffset=-1    yoffset=3     xadvance=7     page=0  chnl=15
char id=192  x=80    y=0     width=7     height=9     xoffset=-1    yoffset=0     xadvance=6     page=0  chnl=15
char id=193  x=40    y=0     width=7     height=9     xoffset=-1    yoffset=0     xadvance=6     page=0  chnl=15
char id=194  x=32    y=0     width=7     height=9     xoffset=-1    yoffset=0     xadvance=6     page=0  chnl=15
char id=195  x=24    y=0     width=7     height=9     xoffset=-1    yoffset=0     xadvance=6     page=0  chnl=15
char id=196  x=216   y=0     width=7     height=9     xoffset=-1    yoffset=0     xadvance=6     page=0  chnl=15
char id=197  x=208   y=0     width=7     height=9     xoffset=-1    yoffset=0     xadvance=6     page=0  chnl=15
char id=199  x=8     y=0     width=7     height=10    xoffset=-1    yoffset=2     xadvance=6     page=0  chnl=15
char id=200  x=200   y=0     width=7     height=9     xoffset=-1    yoffset=0     xadvance=6     page=0  chnl=15
char id=201  x=192   y=0     width=7     height=9     xoffset=-1    yoffset=0     xadvance=6     page=0  chnl=15
char id=202  x=184   y=0     width=7     height=9     xoffset=-1    yoffset=0     xadvance=6     page=0  chnl=15
char id=203  x=176   y=0     width=7     height=9     xoffset=-1    yoffset=0     xadvance=6     page=0  chnl=15
char id=209  x=168   y=0     width=7     height=9     xoffset=-1    yoffset=0     xadvance=6     page=0  chnl=15
char id=210  x=160   y=0     width=7     height=9     xoffset=-1    yoffset=0     xadvance=6     page=0  chnl=15
char id=211  x=144   y=0     width=7     height=9     xoffset=-1    yoffset=0     xadvance=6     page=0  chnl=15
char id=212  x=16    y=0     width=7     height=9     xoffset=-1    yoffset=0     xadvance=6     page=0  chnl=15
char id=213  x=128   y=0     width=7     height=9     xoffset=-1    yoffset=0     xadvance=6     page=0  chnl=15
char id=214  x=120   y=0     width=7     height=9     xoffset=-1    yoffset=0     xadvance=6     page=0  chnl=15
char id=216  x=228   y=10    width=9     height=7     xoffset=-2    yoffset=2     xadvance=7     page=0  chnl=15
char id=217  x=104   y=0     width=7     height=9     xoffset=-1    yoffset=0     xadvance=6     page=0  chnl=15
char id=218  x=96    y=0     width=7     height=9     xoffset=-1    yoffset=0     xadvance=6     page=0  chnl=15
char id=219  x=88    y=0     width=7     height=9     xoffset=-1    yoffset=0     xadvance=6     page=0  chnl=15
char id=220  x=64    y=0     width=7     height=9     xoffset=-1    yoffset=0     xadvance=6     page=0  chnl=15
char id=221  x=231   y=0     width=6     height=9     xoffset=-1    yoffset=0     xadvance=5     page=0  chnl=15
char id=223  x=112   y=10    width=6     height=8     xoffset=-1    yoffset=1     xadvance=5     page=0  chnl=15
char id=224  x=72    y=0     width=7     height=9     xoffset=-1    yoffset=0     xadvance=6     page=0  chnl=15
char id=225  x=152   y=0     width=7     height=9     xoffset=-1    yoffset=0     xadvance=6     page=0  chnl=15
char id=226  x=56    y=0     width=7     height=9     xoffset=-1    yoffset=0     xadvance=6     page=0  chnl=15
char id=227  x=136   y=0     width=7     height=9     xoffset=-1    yoffset=0     xadvance=6     page=0  chnl=15
char id=228  x=96    y=10    width=7     height=8     xoffset=-1    yoffset=1     xadvance=6     page=0  chnl=15
char id=229  x=112   y=0     width=7     height=9     xoffset=-1    yoffset=0     xadvance=6     page=0  chnl=15
char id=231  x=35    y=10    width=6     height=9     xoffset=-1    yoffset=3     xadvance=5     page=0  chnl=15
char id=232  x=42    y=10    width=6     height=9     xoffset=-1    yoffset=0     xadvance=5     page=0  chnl=15
char id=233  x=49    y=10    width=6     height=9     xoffset=-1    yoffset=0     xadvance=5     page=0  chnl=15
char id=234  x=56    y=10    width=6     height=9     xoffset=-1    yoffset=0     xadvance=5     page=0  chnl=15
char id=235  x=161   y=10    width=6     height=8     xoffset=-1    yoffset=1     xadvance=5     page=0  chnl=15
char id=242  x=21    y=10    width=6     height=9     xoffset=-1    yoffset=0     xadvance=5     page=0  chnl=15
char id=243  x=63    y=10    width=6     height=9     xoffset=-1    yoffset=0     xadvance=5     page=0  chnl=15
char id=244  x=224   y=0     width=6     height=9     xoffset=-1    yoffset=0     xadvance=5     page=0  chnl=15
char id=245  x=238   y=0     width=6     height=9     xoffset=-1    yoffset=0     xadvance=5     page=0  chnl=15
char id=246  x=182   y=10    width=6     height=8     xoffset=-1    yoffset=1     xadvance=5     page=0  chnl=15
char id=249  x=245   y=0     width=6     height=9     xoffset=-1    yoffset=0     xadvance=5     page=0  chnl=15
char id=250  x=0     y=11    width=6     height=9     xoffset=-1    yoffset=0     xadvance=5     page=0  chnl=15
char id=251  x=14    y=11    width=6     height=9     xoffset=-1    yoffset=0     xadvance=5     page=0  chnl=15
char id=252  x=196   y=10    width=6     height=8     xoffset=-1    yoffset=1     xadvance=5     page=0  chnl=15
